1111classPLOSautismbiomarkers
…
autism %>% select(-1, -last_col())

## # A tibble: 206 x 24
##    Methion.   SAM   SAH `SAM/SAH` `% DNA methylat `8-OHG` Adenosine
##       <dbl> <dbl> <dbl>     <dbl>            <dbl>   <dbl>     <dbl>
##  1     17.3  56.2 15.2       3.69             3.35   0.055     0.103
##  2     14.9  37.2  7.58      4.91             3.04   0.045     0.055
##  3     15.9  37.9  9.87      3.84             2.81   0.058     0.071
##  4     18.7  79.2 24.5       3.23             4.24   0.085     0.079
##  5     21.5  77.6 19.2       4.04             3.49   0.041     0.058
##  6     18.1  67.6 12.8       5.30             3.01   0.156     0.091
##  7     27.5  60.6 19.6       3.10             3.19   0.072     0.248
##  8     29.8  41.4  9.64      4.29             2.77   0.053     0.113
##  9     13.4  61.6  9.17      6.72             3.01   0.068     0.045
## 10     21.6  47.5 26.5       1.80             3.56   0.069     0.146
## #  with 196 more rows, and 17 more variables: Homocysteine <dbl>,
## #   Cysteine <dbl>, `Glu.-Cys.` <dbl>, `Cys.-Gly.` <dbl>, tGSH <dbl>,
## #   fGSH <dbl>, GSSG <dbl>, `fGSH/GSSG` <dbl>, `tGSH/GSSG` <dbl>,
## #   Chlorotyrosine <dbl>, Nitrotyrosine <dbl>, Tyrosine <dbl>,
## #   Tryptophane <dbl>, fCystine <dbl>, fCysteine <dbl>,
## #   `fCystine/fCysteine` <dbl>, `% oxidized` <dbl>
…
data <- 
  autism %>% 
  select(-`Vineland ABC`) %>% 
  filter(Group != "SIB") %>% 
  mutate(Group = factor(Group))

spec <- workflow() %>% add_recipe(
  recipe(Group ~ ., data = data)) %>%
  add_model(decision_tree(mode = "classification") %>% set_engine("rpart"))
model <- spec %>% fit(data)

model %>% predict(data, type = "prob")

## # A tibble: 159 x 2
##    .pred_ASD .pred_NEU
##        <dbl>     <dbl>
##  1     0.959    0.0411
##  2     0.959    0.0411
##  3     0.959    0.0411
##  4     0.959    0.0411
##  5     0.959    0.0411
##  6     0.959    0.0411
##  7     0.333    0.667 
##  8     0.959    0.0411
##  9     0.583    0.417 
## 10     0.959    0.0411
## #  with 149 more rows
…
^ these could just be on a different scale... we forgot to normalize / scale these to be comparable. So, we shouldn't look @ the coefficient quite yet.

model %>% predict(data, type = "prob")

## # A tibble: 159 x 2
##    .pred_ASD    .pred_NEU
##        <dbl>        <dbl>
##  1     0.912 0.0876      
##  2     0.999 0.000964    
##  3     1.00  0.0000000524
##  4     1.00  0.0000000369
##  5     0.988 0.0124      
##  6     1.00  0.0000222   
##  7     0.947 0.0531      
##  8     1.00  0.0000209   
##  9     0.916 0.0837      
## 10     1.00  0.0000000257
## #  with 149 more rows
…
